…
# Reorder O_Order.Priority
orderTB_copy$O_ORDER.PRIORITY <- ordered(orderTB_copy$O_ORDER.PRIORITY, levels = c("5-LOW","4-NOT SPECIFIED", "3-MEDIUM", "2-HIGH", "1-URGENT"))
```

#### Aggregation Summary
Use the order date and the newly created season variable to aggregate some data; mean and median by year/season, and standard deviation by season.

```r
# Since dplyr and plyr are invoked together, we need to specify dplyr::group_by and dplyr::summarize. Otherwise, we will get only 1 row of summary.
sumOrderData <- orderTB_copy %>% dplyr::group_by(Year, Season) %>% dplyr::summarize(meanPrice = mean(O_TOTALPRICE, na.rm = TRUE), medianPrice = median(O_TOTALPRICE, na.rm = TRUE), sdPrice = sd(O_TOTALPRICE, na.rm = TRUE))
sumOrderData
```

```
## # A tibble: 27 x 5
## # Groups:   Year [?]
##     Year Season meanPrice medianPrice sdPrice
##    <int> <fct>      <dbl>       <dbl>   <dbl>
##  1  1992 Spring   138614.     128124.  83146.
##  2  1992 Summer   148564.     143726.  85700.
##  3  1992 Autumn   138995.     133195.  78980.
##  4  1992 Winter   143478.     139983.  81982.
##  5  1993 Spring   139712.     131084.  81717.
##  6  1993 Summer   138794.     130109.  83893.
##  7  1993 Autumn   149850.     147171.  84223.
##  8  1993 Winter   142190.     141055.  83635.
##  9  1994 Spring   137856.     135319.  79566.
## 10  1994 Summer   140266.     134841.  82471.
## # ... with 17 more rows
```
…
```
##   Spring   Summer   Autumn   Winter 
## 81425.90 82657.53 82894.95 84085.57
```

```r
# In addition to Year/season, we try to summarise by order status/season.
sumOrderData2 <- orderTB_copy %>% dplyr::group_by(O_ORDERSTATUS, Season) %>% dplyr::mutate(meanPrice = mean(O_TOTALPRICE, na.rm = TRUE), medianPrice = median(O_TOTALPRICE, na.rm = TRUE), sdPrice = sd(O_TOTALPRICE, na.rm = TRUE))
sumOrderData2
```

```
## # A tibble: 15,000 x 16
## # Groups:   O_ORDERSTATUS, Season [11]
##    .id   O_ORDERKEY O_CUSTKEY O_ORDERSTATUS O_TOTALPRICE O_ORDERDATE
##    <chr> <fct>      <fct>     <fct>                <dbl> <date>     
##  1 T     1          370       O                  172799. 1996-01-02 
##  2 T     2          781       O                   38426. 1996-12-01 
##  3 T     3          1234      F                  205654. 1993-10-14 
##  4 T     4          1369      O                   56001. 1995-10-11 
##  5 T     5          445       F                  105368. 1994-07-30 
##  6 T     6          557       F                   45523. 1992-02-21 
##  7 T     7          392       O                  271886. 1996-01-10 
##  8 T     32         1301      O                  198666. 1995-07-16 
##  9 T     33         670       F                  146567. 1993-10-27 
## 10 T     34         611       O                   73315. 1998-07-21 
## # ... with 14,990 more rows, and 10 more variables:
## #   O_ORDER.PRIORITY <ord>, O_CLERK <fct>, O_SHIP.PRIORITY <fct>,
## #   O_COMMENT <fct>, X..i.. <fct>, Season <fct>, Year <int>,
## #   meanPrice <dbl>, medianPrice <dbl>, sdPrice <dbl>
```
…
