Project 1 Order Data Analysis
…
# Convert Season into a factor with defined levels (so that the seasons are sorted properly in the aggregation)
orderTB_copy$Season <- factor(Season, levels = c("Spring", "Summer", "Autumn", "Winter"))
orderTB_copy$Year <- as.integer(year(orderTB_copy$O_ORDERDATE))

Aggregation Summary

Use the order date and the newly created season variable to aggregate some data; mean and median by year, and standard deviation by season.

# Since dplyr and plyr are invoked together, we need to specify dplyr::group_by and dplyr::summarize. Otherwise, we will get only 1 row of summary.
sumOrderData <- orderTB_copy %>% dplyr::group_by(Year, Season) %>% dplyr::summarize(meanPrice = mean(O_TOTALPRICE, na.rm = TRUE), medianPrice = median(O_TOTALPRICE, na.rm = TRUE), sdPrice = sd(O_TOTALPRICE, na.rm = TRUE))
sumOrderData

## # A tibble: 27 x 5
## # Groups:   Year [?]
##     Year Season meanPrice medianPrice sdPrice
##    <int> <fct>      <dbl>       <dbl>   <dbl>
##  1  1992 Spring   138614.     128124.  83146.
##  2  1992 Summer   148564.     143726.  85700.
##  3  1992 Autumn   138995.     133195.  78980.
##  4  1992 Winter   143478.     139983.  81982.
##  5  1993 Spring   139712.     131084.  81717.
##  6  1993 Summer   138794.     130109.  83893.
##  7  1993 Autumn   149850.     147171.  84223.
##  8  1993 Winter   142190.     141055.  83635.
##  9  1994 Spring   137856.     135319.  79566.
## 10  1994 Summer   140266.     134841.  82471.
## # ... with 17 more rows
…
